<svg xmlns="http://www.w3.org/2000/svg" viewBox="0 0 20 23">
<path d="M20,3.552c0-3.165-2.417-4.46-4.963-2.876L2.076,8.624c-2.546,1.581-2.629,4.17-0.083,5.753
	l13.085,7.949C17.625,23.906,20,22.613,20,19.448V3.552z"/>
<path d="M19.332,3.552c0-3.165-2.083-4.46-4.629-2.876L1.91,8.624c-2.547,1.581-2.547,4.17,0,5.753
	l12.792,7.949c2.546,1.581,4.629,0.288,4.629-2.877V3.552z"/>
</svg>