<svg xmlns="http://www.w3.org/2000/svg" viewBox="0 0 32 40">
<path d="M18.8,18.9l-3.6,3.5c-0.4,0.4-0.4,1,0,1.4c0.4,0.4,1.1,0.4,1.5,0l3.6-3.5c0.4-0.4,0.4-1,0-1.4C19.9,18.5,19.2,18.5,18.8,18.9z"/>
<path d="M12.1,18.9l3.6,3.5c0.4,0.4,0.4,1,0,1.4c-0.4,0.4-1.1,0.4-1.5,0l-3.6-3.5c-0.4-0.4-0.4-1,0-1.4C11.1,18.5,11.7,18.5,12.1,18.9z"/>
<path d="M15.5,14c0.6,0,1,0.5,1,1.1v8.8c0,0.6-0.5,1.1-1,1.1s-1-0.5-1-1.1v-8.8C14.5,14.5,14.9,14,15.5,14z"/>
<path d="M10.2,27h10.5c0.5,0,1,0.4,1,1c0,0.6-0.4,1-1,1H10.2c-0.5,0-1-0.4-1-1C9.3,27.4,9.7,27,10.2,27z"/>
<path d="M19.2,1L31,12.4V39H1V1H19.2 M19.6,0H0v40h32V12L19.6,0L19.6,0z"/>
</svg>