<svg xmlns="http://www.w3.org/2000/svg" viewBox="0 0 23 20">
	<path d="M3.6,0C0.4,0-0.9,2.4,0.7,5l7.9,13c1.6,2.5,4.2,2.6,5.8,0.1l7.9-13.1C23.9,2.4,22.6,0,19.4,0H3.6z"/>
	<path d="M3.6,0.7c-3.2,0-4.5,2.1-2.9,4.6l7.9,12.8c1.6,2.5,4.2,2.5,5.8,0l7.9-12.8c1.6-2.5,0.3-4.6-2.9-4.6H3.6z"/>
</svg>