<svg xmlns="http://www.w3.org/2000/svg" viewBox="0 0 23 20">
<path d="M19.448,20c3.165,0,4.458-2.375,2.877-4.921L14.376,1.993c-1.582-2.546-4.171-2.463-5.753,0.083
	l-7.948,12.96C-0.907,17.583,0.387,20,3.552,20H19.448z"/>
<path d="M19.448,19.332c3.165,0,4.458-2.083,2.877-4.629L14.376,1.91c-1.582-2.547-4.171-2.547-5.753,0
	L0.676,14.703c-1.583,2.546-0.289,4.629,2.876,4.629H19.448z"/>
</svg>